<?xml version="1.0" encoding="utf-8" standalone="no"?>
<!DOCTYPE svg PUBLIC "-//W3C//DTD SVG 1.1//EN"
  "http://www.w3.org/Graphics/SVG/1.1/DTD/svg11.dtd">
<!-- Created with matplotlib (http://matplotlib.org/) -->
<svg height="1080pt" version="1.1" viewBox="0 0 1080 1080" width="1080pt" xmlns="http://www.w3.org/2000/svg" xmlns:xlink="http://www.w3.org/1999/xlink">
 <defs>
  <style type="text/css">
*{stroke-linecap:butt;stroke-linejoin:round;}
  </style>
 </defs>
 <g id="figure_1">
  <g id="patch_1">
   <path d="
M0 1080
L1080 1080
L1080 0
L0 0
z
" style="fill:none;"/>
  </g>
  <g id="axes_1">
   <g id="PathCollection_1">
    <defs>
     <path d="
M522 -522
L540 -522
L558 -540
L558 -540.103
L575.894 -558
L575.999 -576
L576 -576.267
L593.552 -594
L593.999 -612
L594 -612.048
L611.809 -630
L612 -630.384
L612 -643.794
L605.15 -630
L594 -618.76
L593.79 -612
L589.487 -594
L576 -580.374
L575.979 -576
L574.941 -558
L558 -541.057
L558 -540
L540 -522
L522 -522
L504 -540
L504 -540.872
L486.872 -558
L486.018 -576
L486 -580.021
L472.155 -594
L468.199 -612
L468 -618.633
L456.735 -630
L450 -643.882
L450 -630.401
L450.195 -630
L468 -612.033
L468.001 -612
L468.413 -594
L486 -576.242
L486.001 -576
L486.087 -558
L504 -540.087
L504 -540
L522 -522" id="C0_0_e41bf9b9a7"/>
     <path d="
M432.802 -648
L445.975 -648
L432.955 -666
L432 -672.747
L422.912 -684
L417.276 -702
L416.3 -720
L417.257 -738
L422.728 -756
L432 -767.6
L432.975 -774
L446.05 -792
L450 -796.046
L467.279 -810
L450.356 -810
L450 -809.713
L432.71 -792
L432 -789.771
L432 -774
L417.882 -774
L414.52 -756
L414 -739.633
L414 -738
L414 -720
L414 -702
L414 -701.589
L414.565 -684
L418.166 -666
L432 -666
L432 -650.685
L432.802 -648" id="C0_1_371ceabcd5"/>
     <path d="
M616.108 -648
L629.206 -648
L630 -650.682
L630 -666
L643.823 -666
L647.426 -684
L647.999 -702
L648 -702.117
L648 -720
L648 -738
L648 -739.166
L647.472 -756
L644.109 -774
L630 -774
L630 -789.776
L629.298 -792
L612 -809.731
L611.669 -810
L594.946 -810
L612 -796.147
L616.046 -792
L629.025 -774
L630 -767.54
L639.211 -756
L644.706 -738
L645.669 -720
L644.686 -702
L639.02 -684
L630 -672.814
L629.043 -666
L616.108 -648" id="C0_2_01ec4aa00d"/>
     <path d="
M468 -826.839
L468 -810.688
L486 -825.999
L504 -827.905
L506.959 -828
L522 -835.244
L540 -835.277
L555.209 -828
L558 -827.912
L576 -826.026
L594 -810.903
L594 -826.865
L588.532 -828
L576 -828
L576 -838.886
L558 -844.221
L540 -845.234
L522 -845.23
L504 -844.201
L486 -838.779
L486 -828
L473.6 -828
L468 -826.839" id="C0_3_b2c37b08a7"/>
    </defs>
    <g clip-path="url(#p19e75f9dd6)">
     <use style="fill:#0000fa;" x="0.0" xlink:href="#C0_0_e41bf9b9a7" y="1080.0"/>
    </g>
    <g clip-path="url(#p19e75f9dd6)">
     <use style="fill:#0000fa;" x="0.0" xlink:href="#C0_1_371ceabcd5" y="1080.0"/>
    </g>
    <g clip-path="url(#p19e75f9dd6)">
     <use style="fill:#0000fa;" x="0.0" xlink:href="#C0_2_01ec4aa00d" y="1080.0"/>
    </g>
    <g clip-path="url(#p19e75f9dd6)">
     <use style="fill:#0000fa;" x="0.0" xlink:href="#C0_3_b2c37b08a7" y="1080.0"/>
    </g>
   </g>
   <g id="PathCollection_2">
    <defs>
     <path d="
M522 -522
L540 -522
L558 -540
L558 -541.057
L574.941 -558
L575.979 -576
L576 -580.374
L589.487 -594
L593.79 -612
L594 -618.76
L605.15 -630
L612 -643.794
L612 -648
L616.108 -648
L629.043 -666
L630 -672.814
L639.02 -684
L644.686 -702
L645.669 -720
L644.706 -738
L639.211 -756
L630 -767.54
L629.025 -774
L616.046 -792
L612 -796.147
L594.946 -810
L594 -810
L594 -810.903
L576 -826.026
L558 -827.912
L555.209 -828
L540 -835.277
L522 -835.244
L506.959 -828
L504 -827.905
L486 -825.999
L468 -810.688
L468 -810
L467.279 -810
L450 -796.046
L446.05 -792
L432.975 -774
L432 -767.6
L422.728 -756
L417.257 -738
L416.3 -720
L417.276 -702
L422.912 -684
L432 -672.747
L432.955 -666
L445.975 -648
L450 -648
L450 -643.882
L456.735 -630
L468 -618.633
L468.199 -612
L472.155 -594
L486 -580.021
L486.018 -576
L486.872 -558
L504 -540.872
L504 -540
L522 -522
M522 -522.002
L504.002 -540
L504 -548.723
L494.723 -558
L486.185 -576
L486.013 -594
L486 -595.316
L470.18 -612
L468.233 -630
L468 -634.518
L455.074 -648
L450 -663.392
L447.595 -666
L434.779 -684
L432.694 -702
L432.33 -720
L432.725 -738
L434.976 -756
L448.618 -774
L450 -775.502
L460.428 -792
L468 -799.459
L486 -809.492
L488.906 -810
L504 -821.28
L522 -824.763
L540 -824.771
L558 -821.326
L573.173 -810
L576 -809.506
L594 -799.541
L601.652 -792
L612 -775.527
L613.404 -774
L627.012 -756
L629.265 -738
L629.66 -720
L629.296 -702
L627.207 -684
L614.404 -666
L612 -663.391
L606.884 -648
L594 -634.58
L593.759 -630
L591.705 -612
L576 -595.467
L575.986 -594
L575.786 -576
L565.406 -558
L558 -550.593
L557.999 -540
L540 -522.001
L522 -522.002" id="C1_0_3b09008072"/>
    </defs>
    <g clip-path="url(#p19e75f9dd6)">
     <use style="fill:#007cff;" x="0.0" xlink:href="#C1_0_3b09008072" y="1080.0"/>
    </g>
   </g>
   <g id="PathCollection_3">
    <defs>
     <path d="
M522 -522.002
L540 -522.001
L557.999 -540
L558 -550.593
L565.406 -558
L575.786 -576
L575.986 -594
L576 -595.467
L591.705 -612
L593.759 -630
L594 -634.58
L606.884 -648
L612 -663.391
L614.404 -666
L627.207 -684
L629.296 -702
L629.66 -720
L629.265 -738
L627.012 -756
L613.404 -774
L612 -775.527
L601.652 -792
L594 -799.541
L576 -809.506
L573.173 -810
L558 -821.326
L540 -824.771
L522 -824.763
L504 -821.28
L488.906 -810
L486 -809.492
L468 -799.459
L460.428 -792
L450 -775.502
L448.618 -774
L434.976 -756
L432.725 -738
L432.33 -720
L432.694 -702
L434.779 -684
L447.595 -666
L450 -663.392
L455.074 -648
L468 -634.518
L468.233 -630
L470.18 -612
L486 -595.316
L486.013 -594
L486.185 -576
L494.723 -558
L504 -548.723
L504.002 -540
L522 -522.002
M522 -522.019
L504.019 -540
L504.002 -558
L504 -559.508
L487.858 -576
L486.215 -594
L486.012 -612
L486 -612.656
L471.044 -630
L468.546 -648
L468 -654.227
L457.355 -666
L450.964 -684
L450 -694.38
L445.273 -702
L441.806 -720
L445.893 -738
L450 -744.497
L451.457 -756
L462.361 -774
L468 -779.891
L483.806 -792
L486 -793.999
L504 -806.437
L522 -808.697
L540 -808.701
L558 -806.457
L576 -794.097
L578.302 -792
L594 -779.933
L599.676 -774
L610.54 -756
L612 -744.396
L616.037 -738
L620.132 -720
L616.649 -702
L612 -694.494
L611.028 -684
L604.608 -666
L594 -654.278
L593.444 -648
L590.871 -630
L576 -612.824
L575.985 -612
L575.774 -594
L573.854 -576
L558 -559.819
L557.998 -558
L557.989 -540
L540 -522.011
L522 -522.019" id="C2_0_75fe28efe5"/>
    </defs>
    <g clip-path="url(#p19e75f9dd6)">
     <use style="fill:#23ffd4;" x="0.0" xlink:href="#C2_0_75fe28efe5" y="1080.0"/>
    </g>
   </g>
   <g id="PathCollection_4">
    <defs>
     <path d="
M522 -522.019
L540 -522.011
L557.989 -540
L557.998 -558
L558 -559.819
L573.854 -576
L575.774 -594
L575.985 -612
L576 -612.824
L590.871 -630
L593.444 -648
L594 -654.278
L604.608 -666
L611.028 -684
L612 -694.494
L616.649 -702
L620.132 -720
L616.037 -738
L612 -744.396
L610.54 -756
L599.676 -774
L594 -779.933
L578.302 -792
L576 -794.097
L558 -806.457
L540 -808.701
L522 -808.697
L504 -806.437
L486 -793.999
L483.806 -792
L468 -779.891
L462.361 -774
L451.457 -756
L450 -744.497
L445.893 -738
L441.806 -720
L445.273 -702
L450 -694.38
L450.964 -684
L457.355 -666
L468 -654.227
L468.546 -648
L471.044 -630
L486 -612.656
L486.012 -612
L486.215 -594
L487.858 -576
L504 -559.508
L504.002 -558
L504.019 -540
L522 -522.019
M522 -522.187
L504.187 -540
L504.025 -558
L504.001 -576
L504 -576.081
L488.234 -594
L486.608 -612
L486.135 -630
L486 -634.492
L475.797 -648
L470.272 -666
L468.12 -684
L468 -685.383
L458.222 -702
L456.36 -720
L459.799 -738
L468 -750.331
L469.516 -756
L486 -773.849
L486.218 -774
L504 -788.55
L522 -791.291
L540 -791.294
L558 -788.565
L575.802 -774
L576 -773.863
L592.486 -756
L594 -750.312
L602.177 -738
L605.614 -720
L603.743 -702
L594 -685.445
L593.874 -684
L591.709 -666
L586.091 -648
L576 -634.702
L575.859 -630
L575.379 -612
L573.656 -594
L558 -576.427
L557.997 -576
L557.975 -558
L557.895 -540
L540 -522.105
L522 -522.187" id="C3_0_66d26f44fd"/>
    </defs>
    <g clip-path="url(#p19e75f9dd6)">
     <use style="fill:#97ff60;" x="0.0" xlink:href="#C3_0_66d26f44fd" y="1080.0"/>
    </g>
   </g>
   <g id="PathCollection_5">
    <defs>
     <path d="
M522 -522.187
L540 -522.105
L557.895 -540
L557.975 -558
L557.997 -576
L558 -576.427
L573.656 -594
L575.379 -612
L575.859 -630
L576 -634.702
L586.091 -648
L591.709 -666
L593.874 -684
L594 -685.445
L603.743 -702
L605.614 -720
L602.177 -738
L594 -750.312
L592.486 -756
L576 -773.863
L575.802 -774
L558 -788.565
L540 -791.294
L522 -791.291
L504 -788.55
L486.218 -774
L486 -773.849
L469.516 -756
L468 -750.331
L459.799 -738
L456.36 -720
L458.222 -702
L468 -685.383
L468.12 -684
L470.272 -666
L475.797 -648
L486 -634.492
L486.135 -630
L486.608 -612
L488.234 -594
L504 -576.081
L504.001 -576
L504.025 -558
L504.187 -540
L522 -522.187
M522 -523.874
L505.874 -540
L504.25 -558
L504.167 -576
L504.04 -594
L504 -595.847
L492.572 -612
L489.029 -630
L487.609 -648
L486.584 -666
L486 -674.883
L480.74 -684
L475.602 -702
L475.504 -720
L481.668 -738
L486 -743.918
L493.671 -756
L504 -765.477
L522 -771.783
L540 -771.787
L558 -765.494
L568.344 -756
L576 -743.918
L580.328 -738
L586.482 -720
L586.375 -702
L581.208 -684
L576 -674.997
L575.409 -666
L574.381 -648
L572.948 -630
L569.315 -612
L558 -596.209
L557.953 -594
L557.832 -576
L557.743 -558
L556.949 -540
L540 -523.051
L522 -523.874" id="C4_0_608c31f031"/>
    </defs>
    <g clip-path="url(#p19e75f9dd6)">
     <use style="fill:#ffdb00;" x="0.0" xlink:href="#C4_0_608c31f031" y="1080.0"/>
    </g>
   </g>
   <g id="PathCollection_6">
    <defs>
     <path d="
M522 -523.874
L540 -523.051
L556.949 -540
L557.743 -558
L557.832 -576
L557.953 -594
L558 -596.209
L569.315 -612
L572.948 -630
L574.381 -648
L575.409 -666
L576 -674.997
L581.208 -684
L586.375 -702
L586.482 -720
L580.328 -738
L576 -743.918
L568.344 -756
L558 -765.494
L540 -771.787
L522 -771.783
L504 -765.477
L493.671 -756
L486 -743.918
L481.668 -738
L475.504 -720
L475.602 -702
L480.74 -684
L486 -674.883
L486.584 -666
L487.609 -648
L489.029 -630
L492.572 -612
L504 -595.847
L504.04 -594
L504.167 -576
L504.25 -558
L505.874 -540
L522 -523.874
M540 -532.508
L522.941 -540
L522 -540.114
L506.504 -558
L505.832 -576
L505.844 -594
L505.67 -612
L505.155 -630
L504.351 -648
L504 -654.661
L500.951 -666
L498.002 -684
L497.967 -702
L504 -719.495
L504.149 -720
L520.755 -738
L522 -738.948
L540 -738.959
L541.261 -738
L557.856 -720
L558 -719.511
L564.029 -702
L563.992 -684
L561.036 -666
L558 -654.756
L557.643 -648
L556.839 -630
L556.326 -612
L556.159 -594
L556.176 -576
L555.429 -558
L547.492 -540
L540 -532.508" id="C5_0_6448bb3156"/>
    </defs>
    <g clip-path="url(#p19e75f9dd6)">
     <use style="fill:#ff5500;" x="0.0" xlink:href="#C5_0_6448bb3156" y="1080.0"/>
    </g>
   </g>
   <g id="PathCollection_7">
    <defs>
     <path d="
M540 -532.508
L547.492 -540
L555.429 -558
L556.176 -576
L556.159 -594
L556.326 -612
L556.839 -630
L557.643 -648
L558 -654.756
L561.036 -666
L563.992 -684
L564.029 -702
L558 -719.511
L557.856 -720
L541.261 -738
L540 -738.959
L522 -738.948
L520.755 -738
L504.149 -720
L504 -719.495
L497.967 -702
L498.002 -684
L500.951 -666
L504 -654.661
L504.351 -648
L505.155 -630
L505.67 -612
L505.844 -594
L505.832 -576
L506.504 -558
L522 -540.114
L522.941 -540
L540 -532.508" id="C6_0_b307853a0a"/>
    </defs>
    <g clip-path="url(#p19e75f9dd6)">
     <use style="fill:#a80000;" x="0.0" xlink:href="#C6_0_b307853a0a" y="1080.0"/>
    </g>
   </g>
   <g id="LineCollection_1">
    <defs>
     <path d="
M522 -522
L540 -522
L558 -540
L558 -540.103
L575.894 -558
L575.999 -576
L576 -576.267
L593.552 -594
L593.999 -612
L594 -612.048
L611.809 -630
L612 -630.384
L629.206 -648
L630 -650.682
L643.823 -666
L647.426 -684
L647.999 -702
L648 -702.117
L653.003 -720
L648.69 -738
L648 -739.166
L647.472 -756
L644.109 -774
L630 -789.776
L629.298 -792
L612 -809.731
L611.669 -810
L594 -826.865
L588.532 -828
L576 -838.886
L558 -844.221
L540 -845.234
L522 -845.23
L504 -844.201
L486 -838.779
L473.6 -828
L468 -826.839
L450.356 -810
L450 -809.713
L432.71 -792
L432 -789.771
L417.882 -774
L414.52 -756
L414 -739.633
L413.031 -738
L408.772 -720
L413.748 -702
L414 -701.589
L414.565 -684
L418.166 -666
L432 -650.685
L432.802 -648
L450 -630.401
L450.195 -630
L468 -612.033
L468.001 -612
L468.413 -594
L486 -576.242
L486.001 -576
L486.087 -558
L504 -540.087
L504 -540
L522 -522" id="C7_0_9a57cc59bb"/>
    </defs>
    <g clip-path="url(#p19e75f9dd6)">
     <use style="fill:none;stroke:#000000;stroke-width:1.5;" x="0.0" xlink:href="#C7_0_9a57cc59bb" y="1080.0"/>
    </g>
   </g>
   <g id="LineCollection_2">
    <defs>
     <path d="
M522 -522
L540 -522
L558 -540
L558 -541.057
L574.941 -558
L575.979 -576
L576 -580.374
L589.487 -594
L593.79 -612
L594 -618.76
L605.15 -630
L612 -643.794
L616.108 -648
L629.043 -666
L630 -672.814
L639.02 -684
L644.686 -702
L645.669 -720
L644.706 -738
L639.211 -756
L630 -767.54
L629.025 -774
L616.046 -792
L612 -796.147
L594.946 -810
L594 -810.903
L576 -826.026
L558 -827.912
L555.209 -828
L540 -835.277
L522 -835.244
L506.959 -828
L504 -827.905
L486 -825.999
L468 -810.688
L467.279 -810
L450 -796.046
L446.05 -792
L432.975 -774
L432 -767.6
L422.728 -756
L417.257 -738
L416.3 -720
L417.276 -702
L422.912 -684
L432 -672.747
L432.955 -666
L445.975 -648
L450 -643.882
L456.735 -630
L468 -618.633
L468.199 -612
L472.155 -594
L486 -580.021
L486.018 -576
L486.872 -558
L504 -540.872
L504 -540
L522 -522" id="C8_0_d4380cf1d4"/>
    </defs>
    <g clip-path="url(#p19e75f9dd6)">
     <use style="fill:none;stroke:#000000;stroke-width:1.5;" x="0.0" xlink:href="#C8_0_d4380cf1d4" y="1080.0"/>
    </g>
   </g>
   <g id="LineCollection_3">
    <defs>
     <path d="
M522 -522.002
L540 -522.001
L557.999 -540
L558 -550.593
L565.406 -558
L575.786 -576
L575.986 -594
L576 -595.467
L591.705 -612
L593.759 -630
L594 -634.58
L606.884 -648
L612 -663.391
L614.404 -666
L627.207 -684
L629.296 -702
L629.66 -720
L629.265 -738
L627.012 -756
L613.404 -774
L612 -775.527
L601.652 -792
L594 -799.541
L576 -809.506
L573.173 -810
L558 -821.326
L540 -824.771
L522 -824.763
L504 -821.28
L488.906 -810
L486 -809.492
L468 -799.459
L460.428 -792
L450 -775.502
L448.618 -774
L434.976 -756
L432.725 -738
L432.33 -720
L432.694 -702
L434.779 -684
L447.595 -666
L450 -663.392
L455.074 -648
L468 -634.518
L468.233 -630
L470.18 -612
L486 -595.316
L486.013 -594
L486.185 -576
L494.723 -558
L504 -548.723
L504.002 -540
L522 -522.002" id="C9_0_a4b5a17c6c"/>
    </defs>
    <g clip-path="url(#p19e75f9dd6)">
     <use style="fill:none;stroke:#000000;stroke-width:1.5;" x="0.0" xlink:href="#C9_0_a4b5a17c6c" y="1080.0"/>
    </g>
   </g>
   <g id="LineCollection_4">
    <defs>
     <path d="
M522 -522.019
L540 -522.011
L557.989 -540
L557.998 -558
L558 -559.819
L573.854 -576
L575.774 -594
L575.985 -612
L576 -612.824
L590.871 -630
L593.444 -648
L594 -654.278
L604.608 -666
L611.028 -684
L612 -694.494
L616.649 -702
L620.132 -720
L616.037 -738
L612 -744.396
L610.54 -756
L599.676 -774
L594 -779.933
L578.302 -792
L576 -794.097
L558 -806.457
L540 -808.701
L522 -808.697
L504 -806.437
L486 -793.999
L483.806 -792
L468 -779.891
L462.361 -774
L451.457 -756
L450 -744.497
L445.893 -738
L441.806 -720
L445.273 -702
L450 -694.38
L450.964 -684
L457.355 -666
L468 -654.227
L468.546 -648
L471.044 -630
L486 -612.656
L486.012 -612
L486.215 -594
L487.858 -576
L504 -559.508
L504.002 -558
L504.019 -540
L522 -522.019" id="Ca_0_65240a6dd5"/>
    </defs>
    <g clip-path="url(#p19e75f9dd6)">
     <use style="fill:none;stroke:#000000;stroke-width:1.5;" x="0.0" xlink:href="#Ca_0_65240a6dd5" y="1080.0"/>
    </g>
   </g>
   <g id="LineCollection_5">
    <defs>
     <path d="
M522 -522.187
L540 -522.105
L557.895 -540
L557.975 -558
L557.997 -576
L558 -576.427
L573.656 -594
L575.379 -612
L575.859 -630
L576 -634.702
L586.091 -648
L591.709 -666
L593.874 -684
L594 -685.445
L603.743 -702
L605.614 -720
L602.177 -738
L594 -750.312
L592.486 -756
L576 -773.863
L575.802 -774
L558 -788.565
L540 -791.294
L522 -791.291
L504 -788.55
L486.218 -774
L486 -773.849
L469.516 -756
L468 -750.331
L459.799 -738
L456.36 -720
L458.222 -702
L468 -685.383
L468.12 -684
L470.272 -666
L475.797 -648
L486 -634.492
L486.135 -630
L486.608 -612
L488.234 -594
L504 -576.081
L504.001 -576
L504.025 -558
L504.187 -540
L522 -522.187" id="Cb_0_30cf7b90a2"/>
    </defs>
    <g clip-path="url(#p19e75f9dd6)">
     <use style="fill:none;stroke:#000000;stroke-width:1.5;" x="0.0" xlink:href="#Cb_0_30cf7b90a2" y="1080.0"/>
    </g>
   </g>
   <g id="LineCollection_6">
    <defs>
     <path d="
M522 -523.874
L540 -523.051
L556.949 -540
L557.743 -558
L557.832 -576
L557.953 -594
L558 -596.209
L569.315 -612
L572.948 -630
L574.381 -648
L575.409 -666
L576 -674.997
L581.208 -684
L586.375 -702
L586.482 -720
L580.328 -738
L576 -743.918
L568.344 -756
L558 -765.494
L540 -771.787
L522 -771.783
L504 -765.477
L493.671 -756
L486 -743.918
L481.668 -738
L475.504 -720
L475.602 -702
L480.74 -684
L486 -674.883
L486.584 -666
L487.609 -648
L489.029 -630
L492.572 -612
L504 -595.847
L504.04 -594
L504.167 -576
L504.25 -558
L505.874 -540
L522 -523.874" id="Cc_0_7e0225aa2a"/>
    </defs>
    <g clip-path="url(#p19e75f9dd6)">
     <use style="fill:none;stroke:#000000;stroke-width:1.5;" x="0.0" xlink:href="#Cc_0_7e0225aa2a" y="1080.0"/>
    </g>
   </g>
   <g id="LineCollection_7">
    <defs>
     <path d="
M540 -532.508
L547.492 -540
L555.429 -558
L556.176 -576
L556.159 -594
L556.326 -612
L556.839 -630
L557.643 -648
L558 -654.756
L561.036 -666
L563.992 -684
L564.029 -702
L558 -719.511
L557.856 -720
L541.261 -738
L540 -738.959
L522 -738.948
L520.755 -738
L504.149 -720
L504 -719.495
L497.967 -702
L498.002 -684
L500.951 -666
L504 -654.661
L504.351 -648
L505.155 -630
L505.67 -612
L505.844 -594
L505.832 -576
L506.504 -558
L522 -540.114
L522.941 -540
L540 -532.508" id="Cd_0_b307853a0a"/>
    </defs>
    <g clip-path="url(#p19e75f9dd6)">
     <use style="fill:none;stroke:#000000;stroke-width:1.5;" x="0.0" xlink:href="#Cd_0_b307853a0a" y="1080.0"/>
    </g>
   </g>
   <g id="LineCollection_8">
    <defs/>
   </g>
  </g>
 </g>
 <defs>
  <clipPath id="p19e75f9dd6">
   <rect height="1080.0" width="1080.0" x="0.0" y="0.0"/>
  </clipPath>
 </defs>
</svg>
